1,../uploads/annCopy.jpg,ann,ann,ann,32,ann@gmail.com
2,../uploads/graceCopy.jpg,grace,g,g,34,grace@gmail.com
3,../uploads/graceCopy.jpg,grace,g,g,34,grace@gmail.com
4,../uploads/graceCopy.jpg,grace,g,g,34,grace@gmail.com
5,../uploads/graceCopy.jpg,grace,g,g,34,grace@gmail.com
6,../uploads/graceCopy.jpg,grace,g,g,34,grace@gmail.com
7,../uploads/graceCopy.jpg,grace,g,g,34,grace@gmail.com
8,../uploads/graceCopy.jpg,grace,g,g,34,grace@gmail.com
9,../uploads/graceCopy.jpg,grace,g,g,34,grace@gmail.com
10,../uploads/graceCopy.jpg,grace,g,g,34,grace@gmail.com
11,../uploads/graceCopy.jpg,grace,g,g,34,grace@gmail.com
12,../uploads/graceCopy.jpg,grace,g,g,34,grace@gmail.com
13,../uploads/graceCopy.jpg,grace,g,g,34,grace@gmail.com
13,../uploads/zCopy.png,z,z,z,12,z@gmail.com
14,../uploads/bob-the-minion-kevin-the-minion-minions-clip-art-minions.jpg,bob,b,bob,1,bob@gmail.com
