INSERT INTO `tbluserinfo` (`tbUserInfoId`, `image`, `firstName`, `middleName`, `lastName`, `age`, `email`, `username`, `password`, `createdDate`) VALUES
(1, 'uploads/userpic.png', 'steve', 'J', 'Rogers', 35, 'steved@gmail.com', 'steve', '12345', '2021-02-03 10:52:46'),
(2, 'uploads/femalepic.jpg', 'ana', 'g', 'g', 34, 'ana@gmail.comm', 'ana', '12345', '2021-02-03 10:53:36');


UPDATE tblUserInfo set firstName = 'ana mae',
 lastName = 'ramos'
  where tbUserInfoId = 2


DELETE from tblUserInfo where tbUserInfoId = 2